Is There Gender Bias In Philosophical Texts?
…
pronouns <- c(personal_pronouns, object_pronouns, possessive_pronouns,
              possessive_adjectives, reflexive_pronouns, archaic_pronouns)

We can clearly see that it is the most commonly used pronoun. However, it is interesting to note how much more frequently versions of the he pronoun are used in comparison to she. We inspect this further.

# count pronouns
pronouns_df <- tokenized_tidy %>%
  filter(word %in% pronouns) %>%
  count(word) %>%
  arrange(desc(n))

pronouns_df

## # A tibble: 34 x 2
##    word        n
##    <chr>   <int>
##  1 it     153145
##  2 we      60538
##  3 they    45628
##  4 he      39492
##  5 their   33295
##  6 them    28125
##  7 his     27010
##  8 itself  23896
##  9 our     20647
## 10 you     19642
## #  with 24 more rows
…
